-------------------------------------------------------------------------------
Test set: com.example.demo.DevopsDemo0001ApplicationTests
-------------------------------------------------------------------------------
Tests run: 1, Failures: 0, Errors: 0, Skipped: 0, Time elapsed: 2.52 s - in com.example.demo.DevopsDemo0001ApplicationTests
